<?xml version="1.0" encoding="UTF-8" standalone="no"?>
<!-- Created with Inkscape (http://www.inkscape.org/) -->

<svg
   xmlns:dc="http://purl.org/dc/elements/1.1/"
   xmlns:cc="http://creativecommons.org/ns#"
   xmlns:rdf="http://www.w3.org/1999/02/22-rdf-syntax-ns#"
   xmlns:svg="http://www.w3.org/2000/svg"
   xmlns="http://www.w3.org/2000/svg"
   xmlns:inkscape="http://www.inkscape.org/namespaces/inkscape"
   version="1.1"
   width="468.75"
   height="120"
   id="svg2"
   xml:space="preserve"><metadata
     id="metadata8"><rdf:RDF><cc:Work
         rdf:about=""><dc:format>image/svg+xml</dc:format><dc:type
           rdf:resource="http://purl.org/dc/dcmitype/StillImage" /></cc:Work></rdf:RDF></metadata><defs
     id="defs6"><clipPath
       id="clipPath18"><path
         d="m 0,-246 375,0 0,667 -375,0 0,-667 z"
         inkscape:connector-curvature="0"
         id="path20" /></clipPath></defs><g
     transform="matrix(1.25,0,0,-1.25,0,120)"
     id="g10"><g
       id="g12" /><g
       id="g14"><g
         clip-path="url(#clipPath18)"
         id="g16"><g
           transform="translate(-255,36)"
           id="g22"><path
             d="M 0,8.894172 C 4.460835,9.908004 8.90637,10.95398 13.35201,12 c 10.29476,2.42226 20.58086,4.84244 31.06483,6.86561 8.48398,1.63719 17.02769,3.00091 25.80768,3.91001 C 77.92905,23.57336 85.61237,24 93.46384,24 c 7.85146,0 15.53476,-0.42664 23.23936,-1.22438 8.78,-0.90911 17.3238,-2.27283 25.8078,-3.91004 C 152.9949,16.84243 163.281,14.42226 173.5757,12 183.8704,9.57774 194.1565,7.157556 204.6405,5.134404 213.1244,3.497196 221.6681,2.133492 230.4481,1.224384 238.1527,0.426636 245.836,0 253.6876,0 c 7.8508,0 15.5335,0.426564 23.2375,1.224192 8.7813,0.909168 17.3262,2.273088 25.8114,3.910584 10.4833,2.023068 20.7687,4.443108 31.0629,6.865224 10.2942,2.42212 20.5796,4.84216 31.0629,6.86522 8.4852,1.6375 17.0301,3.00142 25.8114,3.91059 7.704,0.79763 15.3867,1.22419 23.2375,1.22419 7.8516,0 15.5349,-0.42664 23.2395,-1.22438 8.78,-0.90911 17.3237,-2.27282 25.8076,-3.91002 10.484,-2.02316 20.7701,-4.44334 31.0648,-6.8656 10.2947,-2.42226 20.5808,-4.842432 31.0647,-6.865584 8.484,-1.637208 17.0278,-3.000924 25.8078,-3.910032 C 558.6002,0.426636 566.2835,0 574.135,0 c 7.8514,0 15.5347,0.426636 23.2393,1.224384 8.78,0.909096 17.3237,2.272812 25.8077,3.910008 10.4839,2.023164 20.77,4.443348 31.0648,6.865608 4.4456,1.04602 8.8912,2.092 13.352,3.10583"
             inkscape:connector-curvature="0"
             id="path24"
             style="fill:none;stroke:#ffffff;stroke-width:3;stroke-linecap:butt;stroke-linejoin:miter;stroke-miterlimit:10;stroke-opacity:0.12530003;stroke-dasharray:none" /></g><g
           transform="matrix(1,0,0,-1,-135,70)"
           id="g26"><path
             d="M 0,16.30598 C 3.49864,18.16467 6.98528,20.0823 10.472,22 c 8.0742,4.44081 16.1416,8.87781 24.3642,12.58695 6.654,3.00152 13.35484,5.50167 20.241,7.16835 C 61.11988,43.21783 67.14592,44 73.30384,44 c 6.15792,0 12.18396,-0.78217 18.22668,-2.2447 6.88616,-1.6667 13.58708,-4.16685 20.24108,-7.1684 8.2226,-3.70911 16.2899,-8.14609 24.3641,-12.5869 8.0742,-4.44081 16.1416,-8.87781 24.3641,-12.586926 6.654,-3.001548 13.3549,-5.501672 20.241,-7.16837 C 186.7836,0.782166 192.8096,0 198.9676,0 c 6.1574,0 12.1829,0.782034 18.2252,2.244352 6.8872,1.666808 13.589,4.167328 20.2439,7.169404 8.2221,3.708954 16.289,8.145694 24.3627,12.586244 8.0737,4.44055 16.1406,8.87729 24.3627,12.58624 6.6549,3.00208 13.3567,5.5026 20.2439,7.16941 C 312.4483,43.21797 318.4738,44 324.6312,44 c 6.158,0 12.184,-0.78217 18.2268,-2.2447 6.8861,-1.6667 13.587,-4.16683 20.241,-7.16837 8.2225,-3.70912 16.2899,-8.14612 24.3641,-12.58693 8.0742,-4.44081 16.1415,-8.87779 24.3641,-12.586904 6.654,-3.001548 13.3549,-5.501694 20.2411,-7.168392 C 438.111,0.782166 444.137,0 450.295,0 c 6.1579,0 12.1839,0.782166 18.2266,2.244704 6.8862,1.666676 13.587,4.166822 20.241,7.168348 8.2226,3.709138 16.29,8.146138 24.3642,12.586948 3.4867,1.9177 6.9734,3.83533 10.472,5.69402"
             inkscape:connector-curvature="0"
             id="path28"
             style="fill:none;stroke:#9de4ff;stroke-width:4;stroke-linecap:butt;stroke-linejoin:miter;stroke-miterlimit:10;stroke-opacity:0.5;stroke-dasharray:none" /></g><g
           transform="matrix(1,0,0,-1,-66,90)"
           id="g30"><path
             d="M 0,31.1296 C 3.49864,34.67801 6.98528,38.33894 10.472,42 c 8.0742,8.47791 16.1416,16.94855 24.3642,24.02963 6.654,5.73018 13.35484,10.50319 20.241,13.68503 C 61.11988,82.50677 67.14592,84 73.30384,84 79.46176,84 85.4878,82.50677 91.53052,79.71466 98.41668,76.53278 105.1176,71.75977 111.7716,66.02954 119.9942,58.94851 128.0615,50.47791 136.1357,42 144.2099,33.52209 152.2773,25.05145 160.4998,17.97041 167.1538,12.24019 173.8547,7.467222 180.7408,4.285344 186.7836,1.493226 192.8096,0 198.9676,0 c 6.1574,0 12.1829,1.492974 18.2252,4.284672 6.8872,3.182088 13.589,7.955808 20.2439,13.687048 8.2221,7.08073 16.289,15.55087 24.3627,24.02828 8.0737,8.47741 16.1406,16.94755 24.3627,24.02828 6.6549,5.73124 13.3567,10.50496 20.2439,13.68705 6.0423,2.7917 12.0678,4.28467 18.2252,4.28467 6.158,0 12.184,-1.49323 18.2268,-4.28534 6.8861,-3.18188 13.587,-7.95485 20.241,-13.68507 C 371.3215,58.94855 379.3889,50.47791 387.4631,42 395.5373,33.52209 403.6046,25.05149 411.8272,17.97046 418.4812,12.24023 425.1821,7.467222 432.0683,4.285344 438.111,1.493226 444.137,0 450.295,0 c 6.1579,0 12.1839,1.493226 18.2266,4.285344 6.8862,3.181836 13.587,7.954846 20.241,13.685026 8.2226,7.08108 16.29,15.55172 24.3642,24.02963 3.4867,3.66106 6.9734,7.32199 10.472,10.8704"
             inkscape:connector-curvature="0"
             id="path32"
             style="fill:none;stroke:#9de4ff;stroke-width:11;stroke-linecap:butt;stroke-linejoin:miter;stroke-miterlimit:10;stroke-opacity:1;stroke-dasharray:none" /></g></g></g></g></svg>